[gd_scene load_steps=3 format=2]

[ext_resource path="res://Scenes/Enemy.tscn" type="PackedScene" id=1]
[ext_resource path="res://Scenes/Nave.tscn" type="PackedScene" id=2]

[node name="Main" type="Node"]

[node name="Enemy" parent="." instance=ExtResource( 1 )]
position = Vector2( 524.75, 119 )

[node name="Nave" parent="." instance=ExtResource( 2 )]
position = Vector2( 512.5, 547 )

